\BOOKMARK [1][]{section*.1}{\376\377\000E\000d\000u\000c\000a\000t\000i\000o\000n}{}% 1
\BOOKMARK [1][]{section*.2}{\376\377\000C\000o\000m\000p\000u\000t\000e\000r\000\040\000s\000k\000i\000l\000l\000s}{}% 2
\BOOKMARK [1][]{section*.3}{\376\377\000L\000a\000n\000g\000u\000a\000g\000e\000s}{}% 3
\BOOKMARK [1][]{section*.4}{\376\377\000I\000n\000t\000e\000r\000e\000s\000t\000s}{}% 4
